WSO2.hostname
GraphIT.client-url
GraphIT.hostname
Zookeeper.connectstring
Proxy.hostname: localhost
Engine.hostname: localhost
Hadoop.master-hostname: localhost
License.server.user: matthew.riding@compucom.com
License.server.password: ttamttam
General.tuning-parameters: 'on'
GraphIT.cluster.enabled: 'false'
General.install-type: STANDARD
